{
    "version": "https://jsonfeed.org/version/1",
    "title": "gTag.{dev}",
    "description": "",
    "home_page_url": "https://gtag.dev",
    "feed_url": "https://gtag.dev/feed.json",
    "user_comment": "",
    "icon": "https://gtag.dev/media/website/gtag-dev.png",
    "author": {
        "name": "Fatul Mundzir"
    },
    "items": [
        {
            "id": "https://gtag.dev/seo-content-marketing/",
            "url": "https://gtag.dev/seo-content-marketing/",
            "title": "SEO Content Marketing for Link Builders",
            "summary": "What do you want about SEO Content? How many time do you need to learn? The SEO content looks like:&hellip;",
            "image": "https://gtag.dev/media/posts/10/SEO-Content-Marketing.png",
            "author": {
                "name": "Fatul Mundzir"
            },
            "tags": [
            ],
            "date_published": "2019-08-21T19:25:55+07:00",
            "date_modified": "2019-08-22T16:09:26+07:00"
        },
        {
            "id": "https://gtag.dev/basic-on-page-seo/",
            "url": "https://gtag.dev/basic-on-page-seo/",
            "title": "Basic On-Page SEO",
            "summary": "There is 3 million blog post per day. These have attractive, uniques, and more creative idea inside. The goal of this&hellip;",
            "image": "https://gtag.dev/media/posts/9/Basic-On-Page-SEO.png",
            "author": {
                "name": "Fatul Mundzir"
            },
            "tags": [
            ],
            "date_published": "2019-08-15T22:39:53+07:00",
            "date_modified": "2019-08-22T08:26:11+07:00"
        },
        {
            "id": "https://gtag.dev/google-search-console/",
            "url": "https://gtag.dev/google-search-console/",
            "title": "Set up Google Search Console",
            "summary": "GSC (formerly Google Webmaster Tools) is a free platform to monitor how Google views its sites and optimizes by organic&hellip;",
            "image": "https://gtag.dev/media/posts/7/Set-up-Google-Search-Console.png",
            "author": {
                "name": "Fatul Mundzir"
            },
            "tags": [
            ],
            "date_published": "2019-08-05T13:58:12+07:00",
            "date_modified": "2019-08-22T08:26:30+07:00"
        },
        {
            "id": "https://gtag.dev/link-building-techniques/",
            "url": "https://gtag.dev/link-building-techniques/",
            "title": "The Link Building Techniques for SEO",
            "summary": "Link building makes a website still alive. I'm so excited to write about it. As you know about SEO, link&hellip;",
            "image": "https://gtag.dev/media/posts/6/The-link-building-techniques-for-SEO.jpg",
            "author": {
                "name": "Fatul Mundzir"
            },
            "tags": [
            ],
            "date_published": "2019-08-02T15:47:55+07:00",
            "date_modified": "2019-08-22T06:03:20+07:00"
        },
        {
            "id": "https://gtag.dev/schema-markup/",
            "url": "https://gtag.dev/schema-markup/",
            "title": "Boost SEO by using schema markup",
            "summary": "Schema Markup (Schema.org) is the latest Google structure data. You almost found this, but aren't understand about. Google using it&hellip;",
            "image": "https://gtag.dev/media/posts/5/Boost-SEO-by-using-schema-markup.png",
            "author": {
                "name": "Fatul Mundzir"
            },
            "tags": [
            ],
            "date_published": "2019-07-29T21:57:35+07:00",
            "date_modified": "2019-08-21T12:39:26+07:00"
        },
        {
            "id": "https://gtag.dev/measure-website-speed/",
            "url": "https://gtag.dev/measure-website-speed/",
            "title": "5 Ways how do you measure website speed",
            "summary": "The slow website is sucks. We don't like it, website visitors are too. You have to know, 47% of visitors&hellip;",
            "image": "https://gtag.dev/media/posts/4/5-Ways-how-do-you-measure-website-speed.jpeg",
            "author": {
                "name": "Fatul Mundzir"
            },
            "tags": [
            ],
            "date_published": "2019-07-29T17:00:06+07:00",
            "date_modified": "2019-08-21T12:39:40+07:00"
        },
        {
            "id": "https://gtag.dev/create-a-wordpress-website/",
            "url": "https://gtag.dev/create-a-wordpress-website/",
            "title": "How do I create a WordPress website for my business?",
            "summary": "Websites for enterprise and personal is a difference. The enterprise website has some benefited: Improve advertising effectivenessSave money on printing&hellip;",
            "image": "https://gtag.dev/media/posts/3/How-do-I-create-a-WordPress-website-for-my-business.jpg",
            "author": {
                "name": "Fatul Mundzir"
            },
            "tags": [
            ],
            "date_published": "2019-07-25T21:07:58+07:00",
            "date_modified": "2019-08-22T08:27:56+07:00"
        },
        {
            "id": "https://gtag.dev/cheapest-domain-name/",
            "url": "https://gtag.dev/cheapest-domain-name/",
            "title": "The Top Cheapest Domain Name Registrars .COM $1.00 - $5.99",
            "summary": "When you look for the most affordable domain name registrar, sometimes it's not always the best. We need reputable Domain&hellip;",
            "image": "https://gtag.dev/media/posts/2/The-Top-Cheapest-Domain-Name-Registrars-.COM-dollar1.00-dollar5.99.png",
            "author": {
                "name": "Fatul Mundzir"
            },
            "tags": [
            ],
            "date_published": "2019-07-24T20:39:44+07:00",
            "date_modified": "2019-08-21T08:32:52+07:00"
        },
        {
            "id": "https://gtag.dev/google-analytics-tutorial/",
            "url": "https://gtag.dev/google-analytics-tutorial/",
            "title": "How to use google analytics?",
            "summary": "If you want to install Google Analytics on Wordpress, you only need 2 minutes. Here's how: Go to the Google&hellip;",
            "image": "https://gtag.dev/media/posts/8/How-to-use-google-analytics.jpg",
            "author": {
                "name": "Fatul Mundzir"
            },
            "tags": [
            ],
            "date_published": "2019-07-23T11:49:00+07:00",
            "date_modified": "2019-08-21T12:36:25+07:00"
        }
    ]
}
